…
Above is a pearson correlation coefficient with `contv` with all the
other variables. I have filtered out those that are above 0.2.

Should take out some variables. Like idnum, panelwave, …

Lot of relate vars have cor value of 1. Why?

``` r
gss_numeric_p1 %>%
  select(contv_cor$var) %>%
  select(starts_with('rel'))
```

    ## # A tibble: 6,067 x 11
    ##    relate10 relate8 relate9 relhh10 relhh8 relhhd10 relhhd8 relhhd9 relsp11
    ##       <dbl>   <dbl>   <dbl>   <dbl>  <dbl>    <dbl>   <dbl>   <dbl>   <dbl>
    ##  1       NA      NA      NA      NA     NA       NA      NA      NA      NA
    ##  2       NA      NA      NA      NA     NA       NA      NA      NA      NA
    ##  3       NA      NA      NA      NA     NA       NA      NA      NA      NA
    ##  4       NA      NA      NA      NA     NA       NA      NA      NA      NA
    ##  5       NA      NA      NA      NA     NA       NA      NA      NA      NA
    ##  6       NA      NA      NA      NA     NA       NA      NA      NA      NA
    ##  7       NA      NA      NA      NA     NA       NA      NA      NA      NA
    ##  8       NA      NA      NA      NA     NA       NA      NA      NA      NA
    ##  9       NA      NA      NA      NA     NA       NA      NA      NA      NA
    ## 10       NA      NA      NA      NA     NA       NA      NA      NA      NA
    ## # … with 6,057 more rows, and 2 more variables: relsp12 <dbl>,
    ## #   relsp8 <dbl>
…
